{
  "images" : [
    {
      "idiom" : "universal",
      "filename" : "Captura de pantalla 2016-07-13 a las 21.24.30.png",
      "scale" : "1x"
    }
  ],
  "info" : {
    "version" : 1,
    "author" : "xcode"
  }
}